[
	{
		"id":1,
		"MedDRAv20-1":"10002272",
		"SOC":"血液およびリンパ系障害",
		"Term":"貧血",
		"Grade1":"ヘモグロビン＜LLN-10.0 g/dL; ＜LLN-6.2 mmol/L; ＜LLN-100 g/L",
		"Grade2":"ヘモグロビン＜10.0-8.0 g/dL; ＜6.2-4.9 mmol/L; ＜100-80 g/L",
		"Grade3":"ヘモグロビン＜8.0 g/dL; ＜4.9 mmol/L; ＜80 g/L; 輸血を要する",
		"Grade4":"生命を脅かす; 緊急処置を要する",
		"Grade5":"死亡",
		"Definition":"血液100 mL中のヘモグロビン量の減少。皮膚・粘膜の蒼白、息切れ、動悸、軽度の収縮期雑音、嗜眠、易疲労感の貧血徴候を含む"
	},
	{
		"id":2,
		"MedDRAv20-1":"10048580",
		"SOC":"血液およびリンパ系障害",
		"Term":"骨髄細胞減少",
		"Grade1":"軽度の低形成または年齢相応細胞密度からの≦25%の低下",
		"Grade2":"中等度の低形成または年齢相応細胞密度からの＞25-≦50%の低下",
		"Grade3":"高度の低形成または年齢相応細胞密度からの＞50-≦75%の低下",
		"Grade4":"2週間を超えて持続する骨髄無形成",
		"Grade5":"死亡",
		"Definition":"骨髄の造血細胞産生能不全"
	},
	{
		"id":3,
		"MedDRAv20-1":"10013442",
		"SOC":"血液およびリンパ系障害",
		"Term":"播種性血管内凝固",
		"Grade1":"-",
		"Grade2":"検査値異常はあるが出血なし",
		"Grade3":"検査値異常および出血",
		"Grade4":"生命を脅かす; 緊急処置を要する",
		"Grade5":"死亡",
		"Definition":"全身の凝血形成をきたす血液凝固機序の全身性かつ病的な活性化。血小板と凝固因子の消耗による出血リスクの増加"
	},
	{
		"id":4,
		"MedDRAv20-1":"10014950",
		"SOC":"血液およびリンパ系障害",
		"Term":"好酸球増加症",
		"Grade1":"＞ULNかつ＞ベースライン",
		"Grade2":"-",
		"Grade3":"副腎皮質ステロイドを要する",
		"Grade4":"-",
		"Grade5":"-",
		"Definition":"血中好酸球数の増加を示す臨床検査結果によって特徴づけられる病態"
	}
]
